id,name,model_id:id,group_id:id,perm_read,perm_write,perm_create,perm_unlink
access_res_country_city,access_res_country_city,model_res_country_city,,1,0,0,0
access_res_country_village,access_res_country_village,model_res_country_village,,1,0,0,0


